\relax 
\providecommand\hyper@newdestlabel[2]{}
\providecommand\HyperFirstAtBeginDocument{\AtBeginDocument}
\HyperFirstAtBeginDocument{\ifx\hyper@anchor\@undefined
\global\let\oldcontentsline\contentsline
\gdef\contentsline#1#2#3#4{\oldcontentsline{#1}{#2}{#3}}
\global\let\oldnewlabel\newlabel
\gdef\newlabel#1#2{\newlabelxx{#1}#2}
\gdef\newlabelxx#1#2#3#4#5#6{\oldnewlabel{#1}{{#2}{#3}}}
\AtEndDocument{\ifx\hyper@anchor\@undefined
\let\contentsline\oldcontentsline
\let\newlabel\oldnewlabel
\fi}
\fi}
\global\let\hyper@last\relax 
\gdef\HyperFirstAtBeginDocument#1{#1}
\providecommand\HyField@AuxAddToFields[1]{}
\providecommand\HyField@AuxAddToCoFields[2]{}
\select@language{UKenglish}
\@writefile{toc}{\select@language{UKenglish}}
\@writefile{lof}{\select@language{UKenglish}}
\@writefile{lot}{\select@language{UKenglish}}
\@writefile{toc}{\contentsline {section}{\numberline {I}Introduction}{1}{section.1}}
\@writefile{lof}{\contentsline {figure}{\numberline {1}{\ignorespaces Example of a flat top monochromatic laser hitting a plasma ramp. The critical density is located at $x=$30 $c/\omega _p$.\relax }}{1}{figure.caption.1}}
\providecommand*\caption@xref[2]{\@setref\relax\@undefined{#1}}
\newlabel{fig:examp}{{1}{1}{Example of a flat top monochromatic laser hitting a plasma ramp. The critical density is located at $x=$30 $c/\omega _p$.\relax }{figure.caption.1}{}}
\@writefile{lof}{\contentsline {figure}{\numberline {2}{\ignorespaces Airy function and its approximations.\relax }}{1}{figure.caption.2}}
\newlabel{fig:air}{{2}{1}{Airy function and its approximations.\relax }{figure.caption.2}{}}
\bibcite{mora}{1}
\@writefile{toc}{\contentsline {section}{\numberline {II}Some Results}{2}{section.2}}
\@writefile{lot}{\contentsline {table}{\numberline {1}{\ignorespaces Simulation box parameters\relax }}{2}{table.caption.3}}
\newlabel{tab:box}{{1}{2}{Simulation box parameters\relax }{table.caption.3}{}}
\@writefile{lot}{\contentsline {table}{\numberline {2}{\ignorespaces Laser parameters\relax }}{2}{table.caption.3}}
\newlabel{tab:laser}{{2}{2}{Laser parameters\relax }{table.caption.3}{}}
\@writefile{lot}{\contentsline {table}{\numberline {3}{\ignorespaces Density profile parameters\relax }}{2}{table.caption.3}}
\newlabel{tab:density}{{3}{2}{Density profile parameters\relax }{table.caption.3}{}}
\@writefile{lot}{\contentsline {table}{\numberline {4}{\ignorespaces Simulated vs input parameters\relax }}{2}{table.caption.4}}
\newlabel{table:student}{{4}{2}{Simulated vs input parameters\relax }{table.caption.4}{}}
\@writefile{lot}{\contentsline {table}{\numberline {5}{\ignorespaces Comparison between the the simulated results and the theoretical ones\relax }}{2}{table.caption.4}}
\newlabel{fig:comp}{{5}{2}{Comparison between the the simulated results and the theoretical ones\relax }{table.caption.4}{}}
\@writefile{toc}{\contentsline {section}{\numberline {III}Additional suggestions}{2}{section.3}}
